{"code":200,"message":"Success","data":{"items":[{"id":57,"recipientId":3,"senderId":2,"type":"assignment","title":"新作业发布","content":"课程《Codex Submission Course 20260313174547》发布了新作业：Codex Submission Assignment 20260313174547","relatedType":"assignment","relatedId":10,"isRead":false,"priority":"normal","createdAt":"2026-03-13 17:45:49","updatedAt":"2026-03-13 17:45:49","deleted":false,"urgent":false,"highPriority":false,"ageInMinutes":5391,"systemNotification":false,"new":false},{"id":55,"recipientId":3,"type":"system","category":"goal_overdue","title":"能力目标已逾期","content":"目标“提升到4.8”（学习态度）已逾期 7 天，当前 4.30 / 4.80。你仍然可以继续完成，或调整目标分数与截止日期。","relatedType":"goal_overdue","relatedId":1,"isRead":true,"readAt":"2026-03-10 13:22:08","priority":"high","createdAt":"2026-03-10 13:09:25","updatedAt":"2026-03-10 13:22:08","deleted":false,"urgent":false,"highPriority":true,"ageInMinutes":9988,"systemNotification":true,"new":false},{"id":54,"recipientId":3,"type":"system","category":"goal_overdue","title":"能力目标已逾期","content":"目标“提升到4.8”（学习态度）已逾期 2 天，当前 4.30 / 4.80。你仍然可以继续完成，或调整目标分数与截止日期。","relatedType":"goal_overdue","relatedId":1,"isRead":true,"readAt":"2026-03-05 20:58:48","priority":"high","createdAt":"2026-03-05 18:41:25","updatedAt":"2026-03-05 20:58:48","deleted":false,"urgent":false,"highPriority":true,"ageInMinutes":16856,"systemNotification":true,"new":false},{"id":53,"recipientId":3,"senderId":4,"type":"message","category":"chat","title":"","content":"123","isRead":true,"readAt":"2026-03-04 16:48:21","priority":"low","createdAt":"2026-03-04 16:48:09","updatedAt":"2026-03-04 16:48:21","deleted":false,"conversationId":6,"urgent":false,"highPriority":false,"ageInMinutes":18409,"systemNotification":false,"new":false},{"id":50,"recipientId":3,"type":"system","category":"goal_overdue","title":"能力目标已逾期","content":"目标“提升到4.8”（学习态度）已逾期 1 天，当前 4.30 / 4.80。你仍然可以继续完成，或调整目标分数与截止日期。","relatedType":"goal_overdue","relatedId":1,"isRead":true,"readAt":"2026-03-04 00:01:38","priority":"high","createdAt":"2026-03-04 00:00:26","updatedAt":"2026-03-04 00:01:38","deleted":false,"urgent":false,"highPriority":true,"ageInMinutes":19417,"systemNotification":true,"new":false}],"page":1,"size":5,"total":31,"totalPages":7,"hasNext":true,"hasPrevious":false}}